{
  "project_info": {
    "project_number": "594977771988",
    "firebase_url": "https://projets8-4d1a2-default-rtdb.europe-west1.firebasedatabase.app",
    "project_id": "projets8-4d1a2",
    "storage_bucket": "projets8-4d1a2.appspot.com"
  },
  "client": [
    {
      "client_info": {
        "mobilesdk_app_id": "1:594977771988:android:18f6605841cd04310d4641",
        "android_client_info": {
          "package_name": "com.barthelemot.kylian.projetboitedenuit"
        }
      },
      "oauth_client": [
        {
          "client_id": "594977771988-v51btf0oe7n9tue504dk9tev7dlbvc1t.apps.googleusercontent.com",
          "client_type": 1,
          "android_info": {
            "package_name": "com.barthelemot.kylian.projetboitedenuit",
            "certificate_hash": "d19355bea5ae2b3b6269f7d976ab97ad9388df82"
          }
        },
        {
          "client_id": "594977771988-ntetj4pmrjte6ju33opi2f5g2obrna3b.apps.googleusercontent.com",
          "client_type": 3
        }
      ],
      "api_key": [
        {
          "current_key": "AIzaSyD3cUrKhG8CsVGyzyAes5hgbBET5cVs8SE"
        }
      ],
      "services": {
        "appinvite_service": {
          "other_platform_oauth_client": [
            {
              "client_id": "594977771988-ntetj4pmrjte6ju33opi2f5g2obrna3b.apps.googleusercontent.com",
              "client_type": 3
            }
          ]
        }
      }
    }
  ],
  "configuration_version": "1"
}